<svg id="SVG" xmlns="http://www.w3.org/2000/svg" xmlns:xlink="http://www.w3.org/1999/xlink" width="110" height="90" viewBox="0 0 110 90">
  <defs>
    <clipPath id="clip-path">
      <rect id="Rectangle" width="110" height="90" rx="4" fill="#fff"/>
    </clipPath>
  </defs>
  <rect id="Rectangle-2" data-name="Rectangle" width="110" height="90" rx="4" fill="#fff"/>
  <g id="SVG-2" data-name="SVG" clip-path="url(#clip-path)">
    <rect id="Rectangle-3" data-name="Rectangle" width="30" height="90" transform="translate(-1)" fill="#dee2e6"/>
  </g>
</svg>
