<?xml version="1.0" encoding="UTF-8"?>
<svg width="50px" height="45px" viewBox="0 0 50 45" version="1.1" xmlns="http://www.w3.org/2000/svg" xmlns:xlink="http://www.w3.org/1999/xlink">
    <title>react</title>
    <g id="🧠-Symbols" stroke="none" stroke-width="1" fill="none" fill-rule="evenodd">
        <g id="UI/Logo/Skill/React" transform="translate(-20.000000, -23.000000)" fill-rule="nonzero">
            <g id="react" transform="translate(20.000000, 23.000000)">
                <path d="M0.00730654163,22.3975356 C0.00730654163,26.1716 3.69259258,29.6946494 9.50247165,31.6805753 C8.34226355,37.5212911 9.29466732,42.2291001 12.4753699,44.0633956 C15.7446544,45.9489548 20.6152894,44.6437943 25.2382483,40.602609 C29.7445382,44.4805756 34.2987527,46.0067 37.4767055,44.1671014 C40.7430439,42.2762391 41.7363014,37.2492599 40.5440781,31.226077 C46.5955444,29.2254202 49.9805159,26.2212924 49.9805159,22.3975356 C49.9805159,18.7110711 46.2885518,15.5219228 40.5568449,13.5487637 C41.8404,7.27672623 40.7528645,2.68322921 37.4403692,0.773118526 C34.2468998,-1.06844423 29.6396539,0.536637985 25.067173,4.5159534 C20.3100645,0.292300948 15.7483863,-0.997146521 12.4394264,0.918267297 C9.24890323,2.76513318 8.33853172,7.55857804 9.50247165,13.5073207 C3.88861217,15.4645703 0.00730654163,18.7259984 0.00730654163,22.3975356 Z" id="Path" fill="#FFFFFF"></path>
                <path d="M39.3430162,15.5081739 C38.8706382,15.3461391 38.3942524,15.1960323 37.9143123,15.0579967 C37.9939036,14.7345851 38.0675054,14.4097289 38.1350799,14.0835947 C39.2165266,8.83388381 38.5094419,4.60473181 36.0947478,3.21256065 C33.7796347,1.87734909 29.9931963,3.26952025 26.1690467,6.5973357 C25.7922261,6.92600106 25.4237698,7.26413471 25.0640304,7.61141298 C24.8231228,7.3804935 24.577958,7.15405662 24.3286624,6.93221886 C20.3208672,3.37361883 16.3036442,1.87420649 13.8915034,3.27050231 C11.5785508,4.60944571 10.8934643,8.58542211 11.8670807,13.5605484 C11.9639487,14.0532311 12.0733202,14.5433728 12.1950894,15.0304989 C11.6266719,15.1919499 11.0776992,15.3640072 10.5524924,15.5470636 C5.85391474,17.1851431 2.85312594,19.7526461 2.85312594,22.4156055 C2.85312594,25.1661649 6.07428946,27.9249736 10.9684939,29.5976217 C11.3653416,29.7326219 11.7654924,29.85771 12.1685737,29.9727694 C12.0376259,30.4975716 11.9213699,31.0259308 11.8199417,31.5572283 C10.8916966,36.4459332 11.6166548,40.3276316 13.9235186,41.6583257 C16.3061975,43.0322305 20.3051542,41.6200253 24.1992266,38.2161982 C24.5070049,37.9471132 24.8159616,37.661726 25.1253111,37.3625899 C25.5149584,37.7385349 25.9150094,38.1035455 26.3249981,38.4571962 C30.096902,41.7029113 33.8220598,43.0135713 36.1269594,41.6793418 C38.5074778,40.3013123 39.2809499,36.1312805 38.2764968,31.0577515 C38.199896,30.6702298 38.1105283,30.2744588 38.010358,29.8714206 C38.2912278,29.7885345 38.5667944,29.7028987 38.8356829,29.6137275 C43.92355,27.9281162 47.2336883,25.202894 47.2336883,22.4156055 C47.2336883,19.7430219 44.1362646,17.1582346 39.3430162,15.5081739 Z" id="Path" fill="#53C1DE"></path>
                <path d="M38.2393749,27.814197 C37.9968055,27.8945297 37.7477546,27.9721126 37.4939898,28.0473385 C36.9322503,26.269217 36.1740984,24.3783547 35.246639,22.4250333 C36.1318697,20.5178688 36.8605598,18.6513617 37.4065863,16.8846321 C37.8604953,17.0162284 38.3012448,17.1546991 38.7258884,17.3010264 C42.8328719,18.7146065 45.3379158,20.8050238 45.3379158,22.4156055 C45.3379158,24.1312679 42.6323348,26.3585846 38.2395713,27.814197 L38.2393749,27.814197 Z M36.4166677,31.4260248 C36.8607562,33.6694473 36.9241974,35.6977983 36.6299716,37.2834357 C36.3656005,38.7082113 35.8341085,39.6580617 35.1769126,40.0385125 C33.7782598,40.8481245 30.7870952,39.7957468 27.5616106,37.0200466 C27.1917661,36.7018585 26.8191717,36.3620651 26.4455953,36.0026304 C27.6961531,34.6348143 28.9459253,33.0446595 30.1656464,31.2789119 C32.3112555,31.0885883 34.3382316,30.7772746 36.1764553,30.3524346 C36.266805,30.7177617 36.3473341,31.0758215 36.4166677,31.4260248 L36.4166677,31.4260248 Z M17.9833631,39.8986669 C16.616922,40.3812522 15.5286008,40.3950011 14.8708156,40.0157287 C13.470788,39.2084737 12.8890144,36.0914088 13.682717,31.9107706 C13.777101,31.4167071 13.8851694,30.9253562 14.0067974,30.4372847 C15.8245943,30.8393409 17.8368394,31.1286564 19.9875553,31.3030706 C21.2153293,33.0309106 22.5012413,34.6191013 23.7971704,36.0098976 C23.521751,36.2763239 23.2398137,36.5359288 22.951615,36.7884764 C21.2296674,38.2937811 19.5041844,39.361479 17.9835595,39.8986669 L17.9833631,39.8986669 Z M11.5816934,27.8035907 C9.41762149,27.0639016 7.63046498,26.1026593 6.40544078,25.053817 C5.30474564,24.1110374 4.74889852,23.1751323 4.74889852,22.4156055 C4.74889852,20.7997206 7.15828955,18.7383724 11.176691,17.3373627 C11.6810583,17.1622841 12.1904429,17.0020083 12.7041903,16.8567415 C13.2596446,18.6631464 13.9881383,20.5518482 14.8672802,22.4617624 C13.9767463,24.4001565 13.2378429,26.3189093 12.6772818,28.1465268 C12.309331,28.0412089 11.9440245,27.9268624 11.5816934,27.8035907 L11.5816934,27.8035907 Z M13.7276954,13.1963998 C12.8935319,8.93366132 13.4474149,5.71819376 14.8413538,4.91133158 C16.3262316,4.05183088 19.609265,5.27744431 23.0696588,8.34992363 C23.2908192,8.54633604 23.5129616,8.75197984 23.7354969,8.96469448 C22.4462459,10.3492056 21.1721186,11.9254151 19.9549508,13.6432381 C17.8676762,13.8367043 15.8695727,14.1474287 14.0327239,14.5636266 C13.9195753,14.110454 13.8178668,13.6545015 13.7276954,13.1962034 L13.7276954,13.1963998 Z M32.8714237,17.9234573 C32.4375639,17.174032 31.9876096,16.4340403 31.5218741,15.7039971 C32.9380075,15.8827324 34.294628,16.1203914 35.5685589,16.4112782 C35.186144,17.637088 34.7094511,18.9188754 34.1481044,20.2328744 C33.7379594,19.4546472 33.3123143,18.684688 32.8714237,17.9234573 L32.8714237,17.9234573 Z M25.0646197,10.3195473 C25.9390477,11.2668443 26.8148507,12.3247216 27.6763155,13.4723593 C25.9288364,13.3897836 24.1784417,13.3893903 22.4309257,13.4711808 C23.2931762,12.3341494 24.1764428,11.2778434 25.0646197,10.3195473 L25.0646197,10.3195473 Z M17.2077305,17.9364205 C16.77236,18.6915972 16.3546735,19.4568318 15.9550121,20.2314995 C15.4028968,18.922018 14.930525,17.6345346 14.544771,16.3912441 C15.8110418,16.107821 17.1613771,15.8762508 18.5682792,15.7004616 C18.0973242,16.4350292 17.6436829,17.1805543 17.2077305,17.9364205 L17.2077305,17.9364205 Z M18.6087402,29.2660775 C17.1552884,29.1038409 15.7845262,28.8840554 14.5186482,28.6084888 C14.9104909,27.3432 15.3932726,26.0280226 15.9571727,24.690454 C16.3585189,25.4656959 16.7780408,26.2313922 17.2153906,26.9869079 C17.6616614,27.7575964 18.1262433,28.5175355 18.6087402,29.2660775 L18.6087402,29.2660775 Z M25.1170618,34.645617 C24.218475,33.675929 23.3222452,32.6035172 22.4468351,31.4499871 C23.2965152,31.4833772 24.1628903,31.5002687 25.0434071,31.5002687 C25.9480827,31.5002687 26.8423484,31.4800382 27.7224724,31.4407557 C26.8582578,32.6153019 25.9855975,33.689285 25.1170618,34.645617 Z M34.1661743,24.6222989 C34.7593398,25.974402 35.2594058,27.2825086 35.6565517,28.5263884 C34.3696576,28.820025 32.9804326,29.0565055 31.5165709,29.2320982 C31.9856728,28.4884246 32.4399336,27.7354924 32.8790838,26.9737483 C33.3255067,26.1995781 33.7546432,25.4155675 34.1661743,24.6222989 L34.1661743,24.6222989 Z M31.2366832,26.0266477 C30.5644028,27.1945072 29.8543241,28.340197 29.1075727,29.4619007 C27.7908239,29.5559823 26.4300788,29.6044961 25.0434071,29.6044961 C23.6624315,29.6044961 22.3189706,29.5614818 21.0252021,29.4776137 C20.259083,28.3585217 19.5355716,27.2108491 18.8562198,26.0370575 C18.1800435,24.8694936 17.5484498,23.6766727 16.9628042,22.4611732 C17.5469602,21.2453095 18.1766453,20.0518496 18.8505239,18.8833247 L18.8505239,18.8837176 C19.524191,17.7149438 20.2420065,16.5721784 21.0024182,15.4578923 C22.3223096,15.3581148 23.6755911,15.3058691 25.0436036,15.3058691 C26.4177048,15.3058691 27.772754,15.3585076 29.0922526,15.4590708 C29.8449728,16.5716422 30.5581973,17.7104298 31.2305945,18.8733077 C31.9067903,20.0392328 32.5448788,21.2268466 33.1438477,22.4342647 C32.5510402,23.6539845 31.914981,24.8522049 31.2368797,26.0266477 L31.2366832,26.0266477 Z M35.1478435,4.85496122 C36.6338998,5.71210498 37.2119416,9.16837415 36.278197,13.7009833 C36.216995,13.9962554 36.1504658,14.2903982 36.078642,14.5832679 C34.237472,14.1584278 32.2379937,13.8422038 30.1446302,13.6457914 C28.9251056,11.9093093 27.6615846,10.33035 26.3931532,8.96371241 C26.7255347,8.64327498 27.065826,8.33114483 27.4137121,8.02761087 C30.6902639,5.17609551 33.7525298,4.05025958 35.1478435,4.85496122 L35.1478435,4.85496122 Z" id="Shape" fill="#FFFFFF"></path>
                <path d="M25.0434071,18.4525923 C27.232227,18.4525923 29.0064203,20.226982 29.0064203,22.4156055 C29.0064203,24.6044254 27.232227,26.3788151 25.0434071,26.3788151 C22.8547837,26.3788151 21.080394,24.6044254 21.080394,22.4156055 C21.080394,20.226982 22.8547837,18.4525923 25.0434071,18.4525923" id="Path" fill="#53C1DE"></path>
            </g>
        </g>
    </g>
</svg>