<?xml version="1.0" encoding="UTF-8"?>
<svg width="18px" height="12px" viewBox="0 0 24 17" version="1.1" xmlns="http://www.w3.org/2000/svg" xmlns:xlink="http://www.w3.org/1999/xlink">
    <title>Shape</title>
    <g id="🧠-Symbols" stroke="none" stroke-width="1" fill="none" fill-rule="evenodd">
        <g id="UI/Logo/Brand/Circle/Youtube" transform="translate(-9.000000, -13.000000)" fill="#FF0000" fill-rule="nonzero">
            <path d="M21.5117913,29.5535728 L16.5957462,29.4636642 C15.0040395,29.4323342 13.4083715,29.4948741 11.8478747,29.1702908 C9.47399901,28.6853364 9.30582547,26.3074994 9.12984945,24.3129444 C8.88737226,21.5088517 8.98124214,18.6538628 9.43882781,15.8731776 C9.69715005,14.3129209 10.7137537,13.3819045 12.2858942,13.2805922 C17.5930237,12.9129152 22.9354445,12.9564891 28.2308103,13.1280237 C28.7900683,13.1437487 29.3531676,13.229696 29.9046231,13.3275272 C32.6267297,13.8046791 32.6931109,16.4992969 32.869567,18.7676591 C33.0455431,21.0594287 32.9712394,23.362962 32.6348923,25.6391266 C32.3650464,27.5237266 31.8487621,29.1041497 29.6699484,29.2567183 C26.9400394,29.4562218 24.2727902,29.6168329 21.5351987,29.5656966 C21.5353188,29.5535728 21.5195938,29.5535728 21.5117913,29.5535728 Z M18.6216312,24.7822938 C20.6788461,23.6011178 22.6968085,22.439628 24.7422597,21.2663745 C22.6812036,20.0851985 20.6670824,18.9237087 18.6216312,17.7504552 L18.6216312,24.7822938 Z" id="Shape"></path>
        </g>
    </g>
</svg>